^C:\USERS\ROCHANA.SAWATZKY\DOCUMENTS\SCHOOL\HELICOPTERGAMEFINAL\ENSE470-STARTUP-PROJ\HELICOPTERGAME\CONSTANTS.CPP
/c /IC:\osg\OpenSceneGraph/include /Zi /nologo /W3 /WX- /Od /D WIN32 /D _DEBUG /D _CONSOLE /D _UNICODE /D UNICODE /Gm /EHsc /RTC1 /MDd /GS /fp:precise /Zc:wchar_t /Zc:forScope /Fo"X64\DEBUG\\" /Fd"X64\DEBUG\VC110.PDB" /Gd /TP C:\USERS\ROCHANA.SAWATZKY\DOCUMENTS\SCHOOL\HELICOPTERGAMEFINAL\ENSE470-STARTUP-PROJ\HELICOPTERGAME\CONSTANTS.CPP
^C:\USERS\ROCHANA.SAWATZKY\DOCUMENTS\SCHOOL\HELICOPTERGAMEFINAL\ENSE470-STARTUP-PROJ\HELICOPTERGAME\HELICOPTERCONFIG.CPP
/c /IC:\osg\OpenSceneGraph/include /Zi /nologo /W3 /WX- /Od /D WIN32 /D _DEBUG /D _CONSOLE /D _UNICODE /D UNICODE /Gm /EHsc /RTC1 /MDd /GS /fp:precise /Zc:wchar_t /Zc:forScope /Fo"X64\DEBUG\\" /Fd"X64\DEBUG\VC110.PDB" /Gd /TP C:\USERS\ROCHANA.SAWATZKY\DOCUMENTS\SCHOOL\HELICOPTERGAMEFINAL\ENSE470-STARTUP-PROJ\HELICOPTERGAME\HELICOPTERCONFIG.CPP
^C:\USERS\ROCHANA.SAWATZKY\DOCUMENTS\SCHOOL\HELICOPTERGAMEFINAL\ENSE470-STARTUP-PROJ\HELICOPTERGAME\COMMAND.CPP
/c /IC:\osg\OpenSceneGraph/include /Zi /nologo /W3 /WX- /Od /D WIN32 /D _DEBUG /D _CONSOLE /D _UNICODE /D UNICODE /Gm /EHsc /RTC1 /MDd /GS /fp:precise /Zc:wchar_t /Zc:forScope /Fo"X64\DEBUG\\" /Fd"X64\DEBUG\VC110.PDB" /Gd /TP C:\USERS\ROCHANA.SAWATZKY\DOCUMENTS\SCHOOL\HELICOPTERGAMEFINAL\ENSE470-STARTUP-PROJ\HELICOPTERGAME\COMMAND.CPP
^C:\USERS\ROCHANA.SAWATZKY\DOCUMENTS\SCHOOL\HELICOPTERGAMEFINAL\ENSE470-STARTUP-PROJ\HELICOPTERGAME\LOGGER.CPP
/c /IC:\osg\OpenSceneGraph/include /Zi /nologo /W3 /WX- /Od /D WIN32 /D _DEBUG /D _CONSOLE /D _UNICODE /D UNICODE /Gm /EHsc /RTC1 /MDd /GS /fp:precise /Zc:wchar_t /Zc:forScope /Fo"X64\DEBUG\\" /Fd"X64\DEBUG\VC110.PDB" /Gd /TP C:\USERS\ROCHANA.SAWATZKY\DOCUMENTS\SCHOOL\HELICOPTERGAMEFINAL\ENSE470-STARTUP-PROJ\HELICOPTERGAME\LOGGER.CPP
^C:\USERS\ROCHANA.SAWATZKY\DOCUMENTS\SCHOOL\HELICOPTERGAMEFINAL\ENSE470-STARTUP-PROJ\HELICOPTERGAME\MAINAPP.CPP
/c /IC:\osg\OpenSceneGraph/include /Zi /nologo /W3 /WX- /Od /D WIN32 /D _DEBUG /D _CONSOLE /D _UNICODE /D UNICODE /Gm /EHsc /RTC1 /MDd /GS /fp:precise /Zc:wchar_t /Zc:forScope /Fo"X64\DEBUG\\" /Fd"X64\DEBUG\VC110.PDB" /Gd /TP C:\USERS\ROCHANA.SAWATZKY\DOCUMENTS\SCHOOL\HELICOPTERGAMEFINAL\ENSE470-STARTUP-PROJ\HELICOPTERGAME\MAINAPP.CPP
^C:\USERS\ROCHANA.SAWATZKY\DOCUMENTS\SCHOOL\HELICOPTERGAMEFINAL\ENSE470-STARTUP-PROJ\HELICOPTERGAME\MODELCONTROLLER.CPP
/c /IC:\osg\OpenSceneGraph/include /Zi /nologo /W3 /WX- /Od /D WIN32 /D _DEBUG /D _CONSOLE /D _UNICODE /D UNICODE /Gm /EHsc /RTC1 /MDd /GS /fp:precise /Zc:wchar_t /Zc:forScope /Fo"X64\DEBUG\\" /Fd"X64\DEBUG\VC110.PDB" /Gd /TP C:\USERS\ROCHANA.SAWATZKY\DOCUMENTS\SCHOOL\HELICOPTERGAMEFINAL\ENSE470-STARTUP-PROJ\HELICOPTERGAME\MODELCONTROLLER.CPP
^C:\USERS\ROCHANA.SAWATZKY\DOCUMENTS\SCHOOL\HELICOPTERGAMEFINAL\ENSE470-STARTUP-PROJ\HELICOPTERGAME\RENDER.CPP
/c /IC:\osg\OpenSceneGraph/include /Zi /nologo /W3 /WX- /Od /D WIN32 /D _DEBUG /D _CONSOLE /D _UNICODE /D UNICODE /Gm /EHsc /RTC1 /MDd /GS /fp:precise /Zc:wchar_t /Zc:forScope /Fo"X64\DEBUG\\" /Fd"X64\DEBUG\VC110.PDB" /Gd /TP C:\USERS\ROCHANA.SAWATZKY\DOCUMENTS\SCHOOL\HELICOPTERGAMEFINAL\ENSE470-STARTUP-PROJ\HELICOPTERGAME\RENDER.CPP
^C:\USERS\ROCHANA.SAWATZKY\DOCUMENTS\SCHOOL\HELICOPTERGAMEFINAL\ENSE470-STARTUP-PROJ\HELICOPTERGAME\SCRIPTRUNNER.CPP
/c /IC:\osg\OpenSceneGraph/include /Zi /nologo /W3 /WX- /Od /D WIN32 /D _DEBUG /D _CONSOLE /D _UNICODE /D UNICODE /Gm /EHsc /RTC1 /MDd /GS /fp:precise /Zc:wchar_t /Zc:forScope /Fo"X64\DEBUG\\" /Fd"X64\DEBUG\VC110.PDB" /Gd /TP C:\USERS\ROCHANA.SAWATZKY\DOCUMENTS\SCHOOL\HELICOPTERGAMEFINAL\ENSE470-STARTUP-PROJ\HELICOPTERGAME\SCRIPTRUNNER.CPP
^C:\USERS\ROCHANA.SAWATZKY\DOCUMENTS\SCHOOL\HELICOPTERGAMEFINAL\ENSE470-STARTUP-PROJ\HELICOPTERGAME\SLEEPTHREAD.CPP
/c /IC:\osg\OpenSceneGraph/include /Zi /nologo /W3 /WX- /Od /D WIN32 /D _DEBUG /D _CONSOLE /D _UNICODE /D UNICODE /Gm /EHsc /RTC1 /MDd /GS /fp:precise /Zc:wchar_t /Zc:forScope /Fo"X64\DEBUG\\" /Fd"X64\DEBUG\VC110.PDB" /Gd /TP C:\USERS\ROCHANA.SAWATZKY\DOCUMENTS\SCHOOL\HELICOPTERGAMEFINAL\ENSE470-STARTUP-PROJ\HELICOPTERGAME\SLEEPTHREAD.CPP
^C:\USERS\ROCHANA.SAWATZKY\DOCUMENTS\SCHOOL\HELICOPTERGAMEFINAL\ENSE470-STARTUP-PROJ\HELICOPTERGAME\TIMERHANDLER.CPP
/c /IC:\osg\OpenSceneGraph/include /Zi /nologo /W3 /WX- /Od /D WIN32 /D _DEBUG /D _CONSOLE /D _UNICODE /D UNICODE /Gm /EHsc /RTC1 /MDd /GS /fp:precise /Zc:wchar_t /Zc:forScope /Fo"X64\DEBUG\\" /Fd"X64\DEBUG\VC110.PDB" /Gd /TP C:\USERS\ROCHANA.SAWATZKY\DOCUMENTS\SCHOOL\HELICOPTERGAMEFINAL\ENSE470-STARTUP-PROJ\HELICOPTERGAME\TIMERHANDLER.CPP
^C:\USERS\ROCHANA.SAWATZKY\DOCUMENTS\SCHOOL\HELICOPTERGAMEFINAL\ENSE470-STARTUP-PROJ\HELICOPTERGAME\TREVOR\VECTOR2.CPP
/c /IC:\osg\OpenSceneGraph/include /Zi /nologo /W3 /WX- /Od /D WIN32 /D _DEBUG /D _CONSOLE /D _UNICODE /D UNICODE /Gm /EHsc /RTC1 /MDd /GS /fp:precise /Zc:wchar_t /Zc:forScope /Fo"X64\DEBUG\\" /Fd"X64\DEBUG\VC110.PDB" /Gd /TP C:\USERS\ROCHANA.SAWATZKY\DOCUMENTS\SCHOOL\HELICOPTERGAMEFINAL\ENSE470-STARTUP-PROJ\HELICOPTERGAME\TREVOR\VECTOR2.CPP
^C:\USERS\ROCHANA.SAWATZKY\DOCUMENTS\SCHOOL\HELICOPTERGAMEFINAL\ENSE470-STARTUP-PROJ\HELICOPTERGAME\TREVOR\VECTOR3.CPP
/c /IC:\osg\OpenSceneGraph/include /Zi /nologo /W3 /WX- /Od /D WIN32 /D _DEBUG /D _CONSOLE /D _UNICODE /D UNICODE /Gm /EHsc /RTC1 /MDd /GS /fp:precise /Zc:wchar_t /Zc:forScope /Fo"X64\DEBUG\\" /Fd"X64\DEBUG\VC110.PDB" /Gd /TP C:\USERS\ROCHANA.SAWATZKY\DOCUMENTS\SCHOOL\HELICOPTERGAMEFINAL\ENSE470-STARTUP-PROJ\HELICOPTERGAME\TREVOR\VECTOR3.CPP
